^D:\PROJEKTY\ASSEMBLEROWE\ASM-LAB5-ZAD5\ASM-LAB5-ZAD5\DEBUG\ZAD5.OBJ
D:\PROJEKTY\ASSEMBLEROWE\ASM-LAB5-ZAD5\DEBUG\ASM-LAB5-ZAD5.ILK
D:\PROJEKTY\ASSEMBLEROWE\ASM-LAB5-ZAD5\DEBUG\ASM-LAB5-ZAD5.EXE
D:\PROJEKTY\ASSEMBLEROWE\ASM-LAB5-ZAD5\DEBUG\ASM-LAB5-ZAD5.PDB
